module depends/ketsystemr

go 1.17

require (
	github.com/gen2brain/beeep v0.0.0-20210529141713-5586760f0cc1 // indirect
	github.com/go-toast/toast v0.0.0-20190211030409-01e6764cf0a4 // indirect
	github.com/godbus/dbus/v5 v5.0.6 // indirect
	github.com/gopherjs/gopherjs v0.0.0-20211111143520-d0d5ecc1a356 // indirect
	github.com/gopherjs/gopherwasm v1.1.0 // indirect
	github.com/nu7hatch/gouuid v0.0.0-20131221200532-179d4d0c4d8d // indirect
	github.com/tadvi/systray v0.0.0-20190226123456-11a2b8fa57af // indirect
	golang.org/x/sys v0.0.0-20211116061358-0a5406a5449c // indirect
)
